<svg width="24" height="24" viewBox="0 0 24 24" fill="none" xmlns="http://www.w3.org/2000/svg">
<path d="M13.27 4.51998L18.73 2.47998" stroke="white" stroke-miterlimit="10"/>
<path d="M5.55005 3.39001L10.78 4.69001" stroke="white" stroke-miterlimit="10"/>
<path d="M2.82005 3.85999L0.300049 5.69999" stroke="white" stroke-miterlimit="10"/>
<path d="M21.02 2.72998L23.71 4.63998" stroke="white" stroke-miterlimit="10"/>
<path d="M12 6.5C12.8284 6.5 13.5 5.82843 13.5 5C13.5 4.17157 12.8284 3.5 12 3.5C11.1716 3.5 10.5 4.17157 10.5 5C10.5 5.82843 11.1716 6.5 12 6.5Z" stroke="white" stroke-miterlimit="10"/>
<path d="M20 3.5C20.8284 3.5 21.5 2.82843 21.5 2C21.5 1.17157 20.8284 0.5 20 0.5C19.1716 0.5 18.5 1.17157 18.5 2C18.5 2.82843 19.1716 3.5 20 3.5Z" stroke="white" stroke-miterlimit="10"/>
<path d="M4 4.5C4.82843 4.5 5.5 3.82843 5.5 3C5.5 2.17157 4.82843 1.5 4 1.5C3.17157 1.5 2.5 2.17157 2.5 3C2.5 3.82843 3.17157 4.5 4 4.5Z" stroke="white" stroke-miterlimit="10"/>
<path d="M6.5 9.5H1.5V23.5H6.5V9.5Z" stroke="white" stroke-miterlimit="10"/>
<path d="M17.5 9.5H22.5V20.5C22.5 22.16 21.16 23.5 19.5 23.5H17.5V9.5Z" stroke="white" stroke-miterlimit="10"/>
<path d="M14.5 13.5H9.5V23.5H14.5V13.5Z" stroke="white" stroke-miterlimit="10"/>
</svg>
