<svg width="27" height="26" viewBox="0 0 27 26" fill="none" xmlns="http://www.w3.org/2000/svg">
<path d="M25.3611 15.1667V10.8333L22.883 10.5517C22.6528 9.66604 22.3007 8.82917 21.8484 8.05729L23.403 6.10458L20.3399 3.04146L18.3871 4.59604C17.618 4.14104 16.7811 3.78896 15.8928 3.56146L15.6111 1.08333H11.2778L10.9961 3.56146C10.1105 3.79167 9.2736 4.14375 8.50173 4.59604L6.54902 3.04146L3.4859 6.10458L5.04048 8.05729C4.58548 8.82646 4.2334 9.66333 4.0059 10.5517L1.52777 10.8333V15.1667L4.0059 15.4483C4.2361 16.334 4.58819 17.1708 5.04048 17.9427L3.4859 19.8954L6.54902 22.9585L8.50173 21.404C9.2709 21.859 10.1078 22.211 10.9961 22.4385L11.2778 24.9167H15.6111L15.8928 22.4385C16.7784 22.2083 17.6153 21.8563 18.3871 21.404L20.3399 22.9585L23.403 19.8954L21.8484 17.9427C22.3034 17.1735 22.6555 16.3367 22.883 15.4483L25.3611 15.1667Z" stroke="#171321" stroke-width="0.541667" stroke-miterlimit="10"/>
<path d="M10.7361 11.6458C11.484 11.6458 12.0903 11.0396 12.0903 10.2917C12.0903 9.54378 11.484 8.9375 10.7361 8.9375C9.98824 8.9375 9.38196 9.54378 9.38196 10.2917C9.38196 11.0396 9.98824 11.6458 10.7361 11.6458Z" stroke="#171321" stroke-width="0.541667" stroke-miterlimit="10"/>
<path d="M16.1528 17.0625C16.9007 17.0625 17.507 16.4562 17.507 15.7083C17.507 14.9604 16.9007 14.3542 16.1528 14.3542C15.4049 14.3542 14.7986 14.9604 14.7986 15.7083C14.7986 16.4562 15.4049 17.0625 16.1528 17.0625Z" stroke="#171321" stroke-width="0.541667" stroke-miterlimit="10"/>
<path d="M9.38196 10.2917H6.94446" stroke="#171321" stroke-width="0.541667" stroke-miterlimit="10"/>
<path d="M19.9444 10.2917H12.0903" stroke="#171321" stroke-width="0.541667" stroke-miterlimit="10"/>
<path d="M14.7986 15.7083H6.94446" stroke="#171321" stroke-width="0.541667" stroke-miterlimit="10"/>
<path d="M17.507 15.7083H19.9445" stroke="#171321" stroke-width="0.541667" stroke-miterlimit="10"/>
</svg>
