<svg width="33" height="32" viewBox="0 0 33 32" fill="none" xmlns="http://www.w3.org/2000/svg">
<g clip-path="url(#clip0_7608_15008)">
<path d="M15.8779 12.8749L11.6961 8.71553C11.1985 8.20392 10.5607 7.85075 9.86304 7.70037C9.16534 7.54998 8.43876 7.60909 7.77454 7.87027C7.11032 8.13144 6.53807 8.58305 6.12965 9.16836C5.72123 9.75368 5.49484 10.4466 5.47893 11.1602C5.46301 11.8737 5.65827 12.5761 6.04019 13.179C6.4221 13.782 6.97365 14.2586 7.62557 14.5492C8.27748 14.8397 9.00071 14.9311 9.70442 14.812C10.4081 14.6929 11.061 14.3685 11.5809 13.8796L12.5408 12.9197" stroke="#171321" stroke-width="1.27982" stroke-linecap="round" stroke-linejoin="round"/>
<path d="M18.5269 6.93977L19.4195 5.97991C20.2863 5.09503 21.3584 4.43818 22.5403 4.06786C23.7223 3.69753 24.9776 3.62521 26.1943 3.85733C27.411 4.08946 28.5514 4.61883 29.514 5.39831C30.4767 6.17779 31.2316 7.18321 31.7117 8.32504C32.1918 9.46687 32.3821 10.7097 32.2657 11.9429C32.1493 13.176 31.7297 14.3613 31.0444 15.3931C30.3591 16.4249 29.4294 17.2713 28.3379 17.8568C27.2464 18.4424 26.027 18.749 24.7884 18.7493" stroke="#171321" stroke-width="1.27982" stroke-linecap="round" stroke-linejoin="round"/>
<path d="M21.2848 9.57942L22.1966 8.70914C22.6948 8.1969 23.3333 7.84343 24.0318 7.69323C24.7304 7.54303 25.4578 7.60281 26.1224 7.86503C26.7871 8.12726 27.3593 8.58022 27.7672 9.16692C28.175 9.75362 28.4002 10.4478 28.4144 11.1622C28.4286 11.8766 28.2312 12.5792 27.847 13.1816C27.4628 13.7841 26.909 14.2594 26.2553 14.5479C25.6015 14.8363 24.8771 14.9249 24.1731 14.8026C23.4692 14.6803 22.8171 14.3525 22.299 13.8604L14.4762 5.97994C13.6096 5.09344 12.5372 4.43506 11.3545 4.06346C10.1718 3.69186 8.91558 3.61858 7.69772 3.85016C6.47985 4.08173 5.33818 4.61096 4.37442 5.3907C3.41066 6.17044 2.65475 7.17647 2.17402 8.31915C1.6933 9.46183 1.5027 10.7057 1.6192 11.9399C1.7357 13.1741 2.15569 14.3603 2.84175 15.3929C3.5278 16.4254 4.45862 17.2722 5.55126 17.8578C6.6439 18.4435 7.86444 18.7497 9.10413 18.7493" stroke="#171321" stroke-width="1.27982" stroke-linecap="round" stroke-linejoin="round"/>
<path d="M16.9468 28.2839C13.8944 27.3528 11.2964 24.6876 11.2964 21.2129V16.3208C12.2989 16.6915 13.3957 16.7216 14.417 16.4064C15.4384 16.0912 16.3275 15.4483 16.9468 14.5771V14.5771C17.5661 15.4483 18.4551 16.0912 19.4765 16.4064C20.4979 16.7216 21.5946 16.6915 22.5972 16.3208V21.2129C22.5972 24.6876 19.9991 27.3528 16.9468 28.2839" stroke="#171321" stroke-width="1.27982" stroke-linecap="round" stroke-linejoin="round"/>
<path d="M18.2488 21.6087V20.576C18.2509 20.4062 18.2193 20.2377 18.1558 20.0802C18.0923 19.9227 17.9981 19.7794 17.8788 19.6586C17.7595 19.5377 17.6173 19.4418 17.4606 19.3763C17.304 19.3109 17.1358 19.2772 16.966 19.2772V19.2772C16.7962 19.2772 16.6281 19.3109 16.4714 19.3763C16.3147 19.4418 16.1725 19.5377 16.0532 19.6586C15.9339 19.7794 15.8397 19.9227 15.7762 20.0802C15.7127 20.2377 15.6811 20.4062 15.6832 20.576V21.6087" stroke="#171321" stroke-width="1.27982" stroke-linecap="round" stroke-linejoin="round"/>
<path d="M18.7072 21.6033H15.1943V24.0809H18.7072V21.6033Z" stroke="#171321" stroke-width="1.27982" stroke-linecap="round" stroke-linejoin="round"/>
</g>
<defs>
<clipPath id="clip0_7608_15008">
<rect width="31.9954" height="31.9954" fill="white" transform="translate(0.949219 0.00314331)"/>
</clipPath>
</defs>
</svg>
