<svg width="32" height="32" viewBox="0 0 32 32" fill="none" xmlns="http://www.w3.org/2000/svg">
<g clip-path="url(#clip0_110_494)">
<path d="M5.93922 0.640015H7.84002V31.36H5.93922C5.39266 31.36 4.86849 31.1429 4.48201 30.7564C4.09554 30.3699 3.87842 29.8458 3.87842 29.2992V2.70081C3.87842 2.15426 4.09554 1.63008 4.48201 1.24361C4.86849 0.857134 5.39266 0.640015 5.93922 0.640015Z" fill="#AC7FFF"/>
<path d="M18.0512 16.64L21.9744 13.7888C22.0223 13.7495 22.0578 13.6972 22.0766 13.6381C22.0953 13.579 22.0965 13.5158 22.08 13.456L20.7296 9.29602C20.7185 9.26587 20.6985 9.23986 20.6721 9.22147C20.6458 9.20309 20.6145 9.19324 20.5824 9.19324C20.5503 9.19324 20.5189 9.20309 20.4926 9.22147C20.4663 9.23986 20.4462 9.26587 20.4352 9.29602L19.536 12.0608H16.5568L15.6576 9.29602C15.6465 9.26587 15.6265 9.23986 15.6001 9.22147C15.5738 9.20309 15.5425 9.19324 15.5104 9.19324C15.4783 9.19324 15.4469 9.20309 15.4206 9.22147C15.3943 9.23986 15.3742 9.26587 15.3632 9.29602L14.0128 13.456C13.9942 13.5182 13.995 13.5845 14.015 13.6463C14.035 13.708 14.0733 13.7622 14.1248 13.8016L18.0512 16.64Z" fill="#FC6D26"/>
<path d="M25.5359 32H10.7519C10.5822 32 10.4194 31.9326 10.2994 31.8125C10.1794 31.6925 10.1119 31.5297 10.1119 31.36C10.1119 31.1903 10.1794 31.0275 10.2994 30.9074C10.4194 30.7874 10.5822 30.72 10.7519 30.72H25.5359C26.0522 30.72 26.5474 30.5151 26.9128 30.1503C27.2782 29.7856 27.4839 29.2907 27.4847 28.7744V3.2256C27.4839 2.7093 27.2782 2.21444 26.9128 1.84966C26.5474 1.48488 26.0522 1.28 25.5359 1.28C25.3662 1.28 25.2034 1.21257 25.0834 1.09255C24.9634 0.972525 24.8959 0.809739 24.8959 0.64C24.8959 0.470261 24.9634 0.307475 25.0834 0.187452C25.2034 0.0674284 25.3662 0 25.5359 0C26.3915 0.000845371 27.2117 0.340854 27.817 0.945496C28.4222 1.55014 28.7631 2.37008 28.7647 3.2256V28.7744C28.7631 29.6299 28.4222 30.4499 27.817 31.0545C27.2117 31.6591 26.3915 31.9992 25.5359 32Z" fill="#380D75"/>
<path d="M7.84003 32H6.46403C5.60851 31.9992 4.78823 31.6591 4.18299 31.0545C3.57775 30.4499 3.23692 29.6299 3.23523 28.7744V3.2256C3.23692 2.37008 3.57775 1.55014 4.18299 0.945496C4.78823 0.340854 5.60851 0.000845371 6.46403 0L22.9472 0C23.117 0 23.2798 0.0674284 23.3998 0.187452C23.5198 0.307475 23.5872 0.470261 23.5872 0.64C23.5872 0.809739 23.5198 0.972525 23.3998 1.09255C23.2798 1.21257 23.117 1.28 22.9472 1.28H6.46403C5.94773 1.28 5.45253 1.48488 5.08715 1.84966C4.72177 2.21444 4.51608 2.7093 4.51523 3.2256V28.7744C4.51608 29.2907 4.72177 29.7856 5.08715 30.1503C5.45253 30.5151 5.94773 30.72 6.46403 30.72H7.84003C8.00977 30.72 8.17255 30.7874 8.29258 30.9074C8.4126 31.0275 8.48003 31.1903 8.48003 31.36C8.48003 31.5297 8.4126 31.6925 8.29258 31.8125C8.17255 31.9326 8.00977 32 7.84003 32Z" fill="#380D75"/>
<path d="M7.83995 32C7.67021 32 7.50743 31.9326 7.3874 31.8125C7.26738 31.6925 7.19995 31.5297 7.19995 31.36V0.64C7.19995 0.470261 7.26738 0.307475 7.3874 0.187452C7.50743 0.0674284 7.67021 0 7.83995 0C8.00969 0 8.17248 0.0674284 8.2925 0.187452C8.41252 0.307475 8.47995 0.470261 8.47995 0.64V31.36C8.47995 31.5297 8.41252 31.6925 8.2925 31.8125C8.17248 31.9326 8.00969 32 7.83995 32Z" fill="#380D75"/>
<path d="M18.0512 17.28C17.9156 17.2805 17.7834 17.2379 17.6736 17.1584L13.76 14.32C13.5987 14.2011 13.4787 14.0347 13.4167 13.8442C13.3547 13.6537 13.3539 13.4486 13.4144 13.2576L14.768 9.09757C14.821 8.93834 14.9228 8.79981 15.0589 8.70161C15.195 8.60341 15.3585 8.5505 15.5264 8.55037C15.6936 8.54989 15.8566 8.60266 15.9918 8.70105C16.127 8.79943 16.2274 8.93832 16.2784 9.09757L17.0336 11.4208H19.0912L19.84 9.09757C19.8918 8.93885 19.9924 8.80052 20.1274 8.70227C20.2624 8.60403 20.425 8.55087 20.592 8.55037C20.7598 8.54656 20.9244 8.59717 21.0611 8.69465C21.1978 8.79213 21.2993 8.93124 21.3504 9.09117L22.704 13.2512C22.7648 13.4419 22.7644 13.6468 22.7031 13.8373C22.6417 14.0277 22.5223 14.1943 22.3616 14.3136L18.4256 17.1712C18.3151 17.2455 18.1843 17.2835 18.0512 17.28ZM14.6944 13.44L18.0512 15.8752L21.4048 13.44L20.5888 10.928L20.16 12.256C20.1187 12.3849 20.0376 12.4974 19.9284 12.5773C19.8191 12.6572 19.6873 12.7005 19.552 12.7008H16.5568C16.4218 12.7007 16.2903 12.6579 16.1811 12.5786C16.0719 12.4993 15.9906 12.3875 15.9488 12.2592L15.5104 10.912L14.6944 13.44Z" fill="#380D75"/>
<path d="M22.4001 21.1008H13.6929C13.5231 21.1008 13.3603 21.0334 13.2403 20.9133C13.1203 20.7933 13.0529 20.6305 13.0529 20.4608C13.0529 20.2911 13.1203 20.1283 13.2403 20.0083C13.3603 19.8882 13.5231 19.8208 13.6929 19.8208H22.4001C22.5698 19.8208 22.7326 19.8882 22.8526 20.0083C22.9726 20.1283 23.0401 20.2911 23.0401 20.4608C23.0401 20.6305 22.9726 20.7933 22.8526 20.9133C22.7326 21.0334 22.5698 21.1008 22.4001 21.1008Z" fill="#AFA3C6"/>
<path d="M19.8176 24.336H16.2976C16.1279 24.336 15.9651 24.2686 15.845 24.1486C15.725 24.0286 15.6576 23.8658 15.6576 23.696C15.6576 23.5263 15.725 23.3635 15.845 23.2435C15.9651 23.1235 16.1279 23.056 16.2976 23.056H19.8176C19.9873 23.056 20.1501 23.1235 20.2701 23.2435C20.3902 23.3635 20.4576 23.5263 20.4576 23.696C20.4576 23.8658 20.3902 24.0286 20.2701 24.1486C20.1501 24.2686 19.9873 24.336 19.8176 24.336Z" fill="#AFA3C6"/>
</g>
<defs>
<clipPath id="clip0_110_494">
<rect width="32" height="32" fill="white"/>
</clipPath>
</defs>
</svg>
